[gd_scene format=2]

[node name="TestScene" type="Node" index="0"]

[node name="Panel" type="Panel" parent="." index="0"]

anchor_left = 0.0
anchor_top = 0.0
anchor_right = 0.0
anchor_bottom = 0.0
margin_left = 221.0
margin_top = 154.0
margin_right = 597.0
margin_bottom = 235.0
rect_pivot_offset = Vector2( 0, 0 )
rect_clip_content = false
mouse_filter = 0
mouse_default_cursor_shape = 0
size_flags_horizontal = 1
size_flags_vertical = 1

[node name="TextEdit" type="TextEdit" parent="." index="1"]

anchor_left = 0.0
anchor_top = 0.0
anchor_right = 0.0
anchor_bottom = 0.0
margin_left = 237.0
margin_top = 179.0
margin_right = 583.0
margin_bottom = 203.0
rect_pivot_offset = Vector2( 0, 0 )
rect_clip_content = false
focus_mode = 2
mouse_filter = 0
mouse_default_cursor_shape = 0
size_flags_horizontal = 1
size_flags_vertical = 1
text = ""
readonly = false
highlight_current_line = false
syntax_highlighting = false
show_line_numbers = false
highlight_all_occurrences = false
override_selected_font_color = false
context_menu_enabled = true
smooth_scrolling = false
v_scroll_speed = 80.0
hiding_enabled = 0
wrap_lines = false
caret_block_mode = false
caret_blink = true
caret_blink_speed = 0.65
caret_moving_by_right_click = true
_sections_unfolded = [ "Caret", "custom_constants" ]

[node name="Label" type="Label" parent="." index="2"]

anchor_left = 0.0
anchor_top = 0.0
anchor_right = 0.0
anchor_bottom = 0.0
margin_left = 378.0
margin_top = 159.0
margin_right = 439.0
margin_bottom = 173.0
rect_pivot_offset = Vector2( 0, 0 )
rect_clip_content = false
mouse_filter = 2
mouse_default_cursor_shape = 0
size_flags_horizontal = 1
size_flags_vertical = 4
text = "IP Adress"
percent_visible = 1.0
lines_skipped = 0
max_lines_visible = -1

[node name="Button" type="Button" parent="." index="3"]

anchor_left = 0.0
anchor_top = 0.0
anchor_right = 0.0
anchor_bottom = 0.0
margin_left = 300.0
margin_top = 209.0
margin_right = 368.0
margin_bottom = 229.0
rect_pivot_offset = Vector2( 0, 0 )
rect_clip_content = false
focus_mode = 2
mouse_filter = 0
mouse_default_cursor_shape = 0
size_flags_horizontal = 1
size_flags_vertical = 1
toggle_mode = false
enabled_focus_mode = 2
shortcut = null
group = null
text = "Host"
flat = false
align = 1

[node name="Button2" type="Button" parent="." index="4"]

anchor_left = 0.0
anchor_top = 0.0
anchor_right = 0.0
anchor_bottom = 0.0
margin_left = 443.0
margin_top = 209.0
margin_right = 511.0
margin_bottom = 229.0
rect_pivot_offset = Vector2( 0, 0 )
rect_clip_content = false
focus_mode = 2
mouse_filter = 0
mouse_default_cursor_shape = 0
size_flags_horizontal = 1
size_flags_vertical = 1
toggle_mode = false
enabled_focus_mode = 2
shortcut = null
group = null
text = "Join"
flat = false
align = 1


